{
    "type": "blueFlower",
    "anim": "blueFlowerAnim",
    "lightningAnim": "blueLightningAnim",
    "range": [
        {"y": -3, "x": -1},
        {"y": -3, "x": 0},
        {"y": -3, "x": 1},
        {"y": -2, "x": -2},
        {"y": -2, "x": -1},
        {"y": -2, "x": 0},
        {"y": -2, "x": 1},
        {"y": -2, "x": 2},
        {"y": -1, "x": -3},
        {"y": -1, "x": -2},
        {"y": -1, "x": -1},
        {"y": -1, "x": 0},
        {"y": -1, "x": 1},
        {"y": -1, "x": 2},
        {"y": -1, "x": 3},
        {"y": 0, "x": -3},
        {"y": 0, "x": -2},
        {"y": 0, "x": -1},
        {"y": 0, "x": 0},
        {"y": 0, "x": 1},
        {"y": 0, "x": 2},
        {"y": 0, "x": 3},
        {"y": 1, "x": -3},
        {"y": 1, "x": -2},
        {"y": 1, "x": -1},
        {"y": 1, "x": 0},
        {"y": 1, "x": 1},
        {"y": 1, "x": 2},
        {"y": 1, "x": 3},
        {"y": 2, "x": -2},
        {"y": 2, "x": -1},
        {"y": 2, "x": 0},
        {"y": 2, "x": 1},
        {"y": 2, "x": 2},
        {"y": 3, "x": -1},
        {"y": 3, "x": 0},
        {"y": 3, "x": 1}
    ],
    "damage": 5,
    "frequency": 4,
    "upgrades": [],
    "cost": 100,
    "sell": 150
}