{
    "type": "yellowFlower",
    "anim": "yellowFlowerAnim",
    "lightningAnim": "yellowLightningAnim",
    "range": [
        {"y": -2, "x": -1},
        {"y": -2, "x": 0},
        {"y": -2, "x": 1},
        {"y": -1, "x": -2},
        {"y": -1, "x": -1},
        {"y": -1, "x": 0},
        {"y": -1, "x": 1},
        {"y": -1, "x": 2},
        {"y": 0, "x": -2},
        {"y": 0, "x": -1},
        {"y": 0, "x": 1},
        {"y": 0, "x": 2},
        {"y": 1, "x": -2},
        {"y": 1, "x": -1},
        {"y": 1, "x": 0},
        {"y": 1, "x": 1},
        {"y": 1, "x": 2},
        {"y": 2, "x": -1},
        {"y": 2, "x": 0},
        {"y": 2, "x": 1}
    ],
    "damage": 5,
    "frequency": 4,
    "upgrades": ["redFlower", "blueFlower"],
    "cost": 200,
    "sell": 100
}